ResourceId,StartDate,EndDate
20,2019-08-12 13:00:00.0000000,2019-08-18 12:00:00.0000000
52,2019-08-11 13:00:00.0000000,2019-08-12 12:00:00.0000000
11,2019-08-11 13:00:00.0000000,2019-08-13 12:00:00.0000000
7,2019-08-11 13:00:00.0000000,2019-08-14 12:00:00.0000000
5,2019-08-11 13:00:00.0000000,2019-08-14 12:00:00.0000000
27,2019-08-11 13:00:00.0000000,2019-08-14 12:00:00.0000000
30,2019-08-10 13:00:00.0000000,2019-08-11 12:00:00.0000000
55,2019-08-10 13:00:00.0000000,2019-08-11 12:00:00.0000000
44,2019-08-10 13:00:00.0000000,2019-08-11 12:00:00.0000000
71,2019-08-10 13:00:00.0000000,2019-08-11 12:00:00.0000000
90,2019-08-10 13:00:00.0000000,2019-08-11 12:00:00.0000000
38,2019-08-10 13:00:00.0000000,2019-08-12 12:00:00.0000000
30,2019-08-09 13:00:00.0000000,2019-08-10 12:00:00.0000000
71,2019-08-09 13:00:00.0000000,2019-08-10 12:00:00.0000000