ResourceId,StartDate,EndDate
90,2019-11-16 13:00:00.0000000,2019-11-17 12:00:00.0000000
90,2019-11-09 13:00:00.0000000,2019-11-10 12:00:00.0000000
58,2019-11-07 13:00:00.0000000,2019-11-09 12:00:00.0000000
90,2019-11-02 13:00:00.0000000,2019-11-03 12:00:00.0000000
107,2019-11-02 13:00:00.0000000,2019-11-04 12:00:00.0000000
18,2019-11-01 13:00:00.0000000,2019-11-03 12:00:00.0000000
90,2019-10-26 13:00:00.0000000,2019-10-27 12:00:00.0000000
10,2019-10-19 13:00:00.0000000,2019-10-21 12:00:00.0000000
90,2019-10-16 13:00:00.0000000,2019-10-18 12:00:00.0000000
10,2019-10-05 13:00:00.0000000,2019-10-06 12:00:00.0000000
26,2019-10-05 13:00:00.0000000,2019-10-06 12:00:00.0000000
90,2019-10-05 13:00:00.0000000,2019-10-06 12:00:00.0000000
90,2019-10-04 13:00:00.0000000,2019-10-05 12:00:00.0000000
11,2019-09-29 13:00:00.0000000,2019-10-02 12:00:00.0000000
20,2019-09-28 13:00:00.0000000,2019-09-29 12:00:00.0000000
