ResourceId,StartDate,EndDate
640,2021-02-19T21:00:00.000Z,2021-05-16T21:00:00.000Z
649,2022-05-12T21:00:00.000Z,2024-06-24T21:00:00.000Z
608,2022-08-23T21:00:00.000Z,2023-01-25T21:00:00.000Z
684,2021-01-30T21:00:00.000Z,2022-02-09T21:00:00.000Z
